{
    "name" : "crate",
    "type" : "actor",
    "width" : 0.5,
    "height" : 0.5,
    "resolution" : 128,
    "defaultState" : "defaultState",
    "directionalX" : false,
    "directionalY" : false,
    "states" : {
        "default" : {
            "renderTop" : 0,
            "renderBottom" : 128,
            "renderLeft" : 0,
            "renderRight" : 128,
            "frameRate" : 0
        }
    },
    "geometry" : {
        "fixtures" : [
            {
                "vertices" : [
                    [-0.25, -0.25],
                    [0.25, -0.25],
                    [0.25, 0.25],
                    [-0.25, 0.25]
                ],
                "sensor" : false,
                "density" : 100.0,
                "restitution" : 0.3,
                "friction" : 30.0
            }
        ],
        "fixedRotation" : false
    }
}