{
    "name" : "testdog",
    "type" : "actor",
    "width" : 1.0,
    "height" : 0.4782608695,
    "resolution" : 256,
    "defaultState" : "stand",
    "directionalX" : true,
    "directionalY" : false,
    "states" : {
        "walk" : {
            "renderTop" : 72,
            "renderBottom" : 183,
            "renderLeft" : 12,
            "renderRight" : 243,
            "frameRate" : 15
        },
        "stand" : {
            "renderTop" : 72,
            "renderBottom" : 183,
            "renderLeft" : 12,
            "renderRight" : 243,
            "frameRate" : 0
        }
    },
    "geometry" : {
        "fixtures" : [
            {
                "vertices" : [
                    [-0.5, -0.23913043475],
                    [0.5, -0.23913043475],
                    [0.5, 0.23913043475],
                    [-0.5, 0.23913043475]
                ],
                "sensor" : false,
                "friction" : 100.0,
                "restitution" : 0.2,
                "density" : 34.0
            }
        ],
        "fixedRotation" : true
    }
}